{
  "total" : 1,
  "items" : [ {
    "uid" : "21f8afb91cb860d1b9aa454a8436d3d9",
    "name" : "Label",
    "statistic" : {
      "failed" : 0,
      "broken" : 0,
      "skipped" : 0,
      "passed" : 4,
      "unknown" : 0,
      "total" : 4
    }
  } ]
}