{
  "reportName" : "Allure Report",
  "testRuns" : [ ],
  "statistic" : {
    "failed" : 0,
    "broken" : 0,
    "skipped" : 0,
    "passed" : 4,
    "unknown" : 0,
    "total" : 4
  },
  "time" : {
    "start" : 1573248116151,
    "stop" : 1573251454207,
    "duration" : 3338056,
    "minDuration" : 27278,
    "maxDuration" : 27588,
    "sumDuration" : 109990
  }
}